('D:\\repo\\Python\\DirScan\\build\\main\\PKG-00.pkg',
 {'BINARY': 1,
  'DATA': 1,
  'EXECUTABLE': 1,
  'EXTENSION': 1,
  'PYMODULE': 1,
  'PYSOURCE': 1,
  'PYZ': 0},
 [('PYZ-00.pyz', 'D:\\repo\\Python\\DirScan\\build\\main\\PYZ-00.pyz', 'PYZ'),
  ('struct',
   'C:\\Users\\Prock\\AppData\\Local\\Programs\\Python\\Python38-32\\lib\\struct.pyo',
   'PYMODULE'),
  ('pyimod01_os_path',
   'd:\\repo\\python\\dirscan\\venv\\lib\\site-packages\\PyInstaller\\loader\\pyimod01_os_path.pyc',
   'PYMODULE'),
  ('pyimod02_archive',
   'd:\\repo\\python\\dirscan\\venv\\lib\\site-packages\\PyInstaller\\loader\\pyimod02_archive.pyc',
   'PYMODULE'),
  ('pyimod03_importers',
   'd:\\repo\\python\\dirscan\\venv\\lib\\site-packages\\PyInstaller\\loader\\pyimod03_importers.pyc',
   'PYMODULE'),
  ('pyiboot01_bootstrap',
   'd:\\repo\\python\\dirscan\\venv\\lib\\site-packages\\PyInstaller\\loader\\pyiboot01_bootstrap.py',
   'PYSOURCE'),
  ('pyi_rth_multiprocessing',
   'D:\\repo\\Python\\DirScan\\venv\\Lib\\site-packages\\PyInstaller\\loader\\rthooks\\pyi_rth_multiprocessing.py',
   'PYSOURCE'),
  ('pyi_rth__tkinter',
   'D:\\repo\\Python\\DirScan\\venv\\Lib\\site-packages\\PyInstaller\\loader\\rthooks\\pyi_rth__tkinter.py',
   'PYSOURCE'),
  ('main', 'D:\\repo\\Python\\DirScan\\main.py', 'PYSOURCE'),
  ('main.exe.manifest',
   'D:\\repo\\Python\\DirScan\\build\\main\\main.exe.manifest',
   'BINARY')],
 True,
 False,
 False,
 [])
